{
  "appId": "com.mnt.poshlife",
  "appName": "POSHLIFE",
  "webDir": "www",
  "npmClient": "npm",
  "cordova": {
    "preferences": {
      "ScrollEnabled": "false",
      "android-minSdkVersion": "19",
      "BackupWebStorage": "none",
      "SplashMaintainAspectRatio": "true",
      "FadeSplashScreenDuration": "1000",
      "SplashShowOnlyFirstTime": "false",
      "SplashScreen": "screen",
      "AutohideSplashScreen": "false",
      "SplashScreenDelay": "10000",
      "FadeSplashScreen": "true"
    }
  }
}
