<svg viewBox="0 0 1024 1024" xmlns="http://www.w3.org/2000/svg">
  <path
    d="M949.5 847.2c0 37.1-29.1 66.2-66.2 66.2-37 0-66.1-29.1-66.1-66.2v-9h-206v9c0 37.1-29 66.2-66.1 66.2-37.1 0-66.2-29.1-66.2-66.2v-9h-28.2V688.5c0-34.7 23.2-64.3 55-73l18.8-82.5c13.3-43.6 44-52.5 67.5-52.5h244.3c34.6 0 60.5 19.4 69.2 51.8l18 83.6c31.3 9.4 54.1 39 54.1 72.6v149.7h-28.2v9h0.1z m-94 0c0 15.6 12.2 27.8 27.8 27.8 15.6 0 27.9-12.2 27.9-27.8v-9.1h-55.6v9.1h-0.1z m-338.2 0c0 15.6 12.2 27.8 27.9 27.8 15.6 0 27.8-12.2 27.8-27.8v-9.1h-55.7v9.1z m351-306c-3.9-14.5-14.8-22.4-32-22.4H592c-16.9 0-25.1 6.5-30.5 24.1l-15.7 69h337.5l-15-70.7z m71 147.3c0-19-14.7-35.4-33.5-37.3l-10.6-1h-358v0.2l-14.3 0.9c-19.2 1.3-33.8 17.3-33.8 37.3V800h450.2V688.5z m-74.8 74.2c-20.6 0-37.6-16.9-37.6-37.6 0-20.7 16.9-37.6 37.6-37.6 20.6 0 37.6 16.9 37.6 37.6 0 20.6-17 37.6-37.6 37.6z m0-56.4c-10.4 0-18.8 8.4-18.8 18.8 0 10.3 8.4 18.8 18.8 18.8 10.3 0 18.8-8.4 18.8-18.8s-8.5-18.8-18.8-18.8z m-300.6 56.4c-20.7 0-37.6-16.9-37.6-37.6 0-20.7 16.9-37.6 37.6-37.6 20.6 0 37.6 16.9 37.6 37.6 0 20.6-17 37.6-37.6 37.6z m0-56.4c-10.3 0-18.8 8.4-18.8 18.8 0 10.3 8.5 18.8 18.8 18.8s18.8-8.4 18.8-18.8-8.5-18.8-18.8-18.8zM381.4 474.4v97.2h-97.5v-97.2h97.5zM460.2 124L109.9 475.1h92v361.6h204.9v51.6H202.4c-28.6 0-51.7-23.1-51.7-51.6v-310H99c-28.6 0-51.6-23.2-51.6-51.7h-1c0.1-2.6 1.5-4.9 2.5-7.4 3.1-20.9 18.3-37.1 38.7-41.9L447.3 66.6c8.3-8.3 16.6-8.3 24.9 0l359.4 358.7c10 1.9 19 6.6 26.1 13.2H774L460.2 124zM150.5 578.3h0.2c-0.1 0-0.2 0.1-0.2 0z" />
</svg>
